[gd_scene load_steps=8 format=2]

[ext_resource path="res://Scripts/Player.gd" type="Script" id=1]
[ext_resource path="res://Assets/kenney_platformerpack/Spritesheets/spritesheet_alien.png" type="Texture" id=2]

[sub_resource type="RectangleShape2D" id=1]
extents = Vector2( 26.462, 38.442 )

[sub_resource type="Animation" id=2]
resource_name = "Idle"
length = 0.2
tracks/0/type = "value"
tracks/0/path = NodePath("Sprite:frame")
tracks/0/interp = 1
tracks/0/loop_wrap = true
tracks/0/imported = false
tracks/0/enabled = true
tracks/0/keys = {
"times": PoolRealArray( 0 ),
"transitions": PoolRealArray( 1 ),
"update": 1,
"values": [ 3 ]
}

[sub_resource type="Animation" id=5]
resource_name = "Joget"
length = 1.3
loop = true
tracks/0/type = "value"
tracks/0/path = NodePath("Sprite:frame")
tracks/0/interp = 1
tracks/0/loop_wrap = true
tracks/0/imported = false
tracks/0/enabled = true
tracks/0/keys = {
"times": PoolRealArray( 0, 0.3, 0.4, 0.5, 0.6, 0.7, 0.8, 0.9, 1, 1.1 ),
"transitions": PoolRealArray( 1, 1, 1, 1, 1, 1, 1, 1, 1, 1 ),
"update": 1,
"values": [ 2, 3, 0, 3, 1, 3, 0, 3, 3, 1 ]
}
tracks/1/type = "value"
tracks/1/path = NodePath("Animator:root_node")
tracks/1/interp = 1
tracks/1/loop_wrap = true
tracks/1/imported = false
tracks/1/enabled = true
tracks/1/keys = {
"times": PoolRealArray( 4.9 ),
"transitions": PoolRealArray( 0.68302 ),
"update": 1,
"values": [ NodePath("..") ]
}

[sub_resource type="Animation" id=3]
resource_name = "Jump"
length = 0.2
tracks/0/type = "value"
tracks/0/path = NodePath("Sprite:frame")
tracks/0/interp = 1
tracks/0/loop_wrap = true
tracks/0/imported = false
tracks/0/enabled = true
tracks/0/keys = {
"times": PoolRealArray( 0 ),
"transitions": PoolRealArray( 1 ),
"update": 1,
"values": [ 2 ]
}

[sub_resource type="Animation" id=4]
length = 0.4
loop = true
tracks/0/type = "value"
tracks/0/path = NodePath("Sprite:frame")
tracks/0/interp = 1
tracks/0/loop_wrap = true
tracks/0/imported = false
tracks/0/enabled = true
tracks/0/keys = {
"times": PoolRealArray( 0, 0.2 ),
"transitions": PoolRealArray( 1, 1 ),
"update": 1,
"values": [ 0, 1 ]
}

[node name="Player" type="KinematicBody2D"]
script = ExtResource( 1 )

[node name="CollisionShape2D" type="CollisionShape2D" parent="."]
shape = SubResource( 1 )

[node name="Sprite" type="Sprite" parent="."]
position = Vector2( 0, -25 )
scale = Vector2( 0.5, 0.5 )
texture = ExtResource( 2 )
hframes = 4

[node name="Animator" type="AnimationPlayer" parent="."]
anims/Idle = SubResource( 2 )
anims/Joget = SubResource( 5 )
anims/Jump = SubResource( 3 )
anims/Walk = SubResource( 4 )

[node name="Camera2D" type="Camera2D" parent="."]
current = true
zoom = Vector2( 0.4, 0.3 )
