[gd_scene load_steps=2 format=2]

[ext_resource path="res://Assets/DiRumahAja.jpg" type="Texture" id=1]

[node name="Win Screen" type="Sprite"]
position = Vector2( 512.329, 294.151 )
texture = ExtResource( 1 )
